{
  "_meta": {
    "sources": [
      "loopback/common/models",
      "loopback/server/models",
      "../common/models",
      "./models"
    ],
    "mixins": [
      "loopback/common/mixins",
      "loopback/server/mixins",
      "../common/mixins",
      "./mixins"
    ]
  },
  "User": {
    "dataSource": "devsus"
  },
  "AccessToken": {
    "dataSource": "devsus",
    "public": true
  },
  "ACL": {
    "dataSource": "devsus",
    "public": false
  },
  "RoleMapping": {
    "dataSource": "devsus",
    "public": false
  },
  "Role": {
    "dataSource": "devsus",
    "public": false
  },
  "SusUser": {
    "dataSource": "devsus",
    "public": true
  },
  "Article": {
    "dataSource": "devsus",
    "public": true
  },
  "Category": {
    "dataSource": "devsus",
    "public": true
  },
  "Comment": {
    "dataSource": "devsus",
    "public": true
  },
  "Company": {
    "dataSource": "devsus",
    "public": true
  },
  "Event": {
    "dataSource": "devsus",
    "public": true
  },
  "Error": {
    "dataSource": "devsus",
    "public": true
  },
  "Subscribe": {
    "dataSource": "devsus",
    "public": true
  },
  "SiteService": {
    "dataSource": "devsus",
    "public": true
  }
}
